{
  "ABC0001": {
    "ID": "ABC0001",
    "NAME": "ADRIANA LEBLANC",
    "CARD_NUMBER": "1234123412341234",
    "TOTAL_TRANSACTIONS": "1",
    "AMOUNT": "1000"
  },
  "ABC0002": {
    "ID": "ABC0002",
    "NAME": "JHON SMITH",
    "CARD_NUMBER": "1234123412341234",
    "TOTAL_TRANSACTIONS": "0",
    "AMOUNT": "0"
  },
  "ABC0003": {
    "ID": "ABC0003",
    "NAME": "REBECA ALCANTARA",
    "CARD_NUMBER": "1234123412341234",
    "TOTAL_TRANSACTIONS": "5",
    "AMOUNT": "5000"
  }
}